[
    {
        "_id": "b-10",
        "_parentId": "a-10",
        "_type": "block",
        "_classes": "",
        "title": "",
        "displayTitle": "",
        "body": "",
        "_trackingId": 1
    },
    {
        "_id": "b-20",
        "_parentId": "a-10",
        "_type": "block",
        "_classes": "",
        "title": "",
        "displayTitle": "",
        "body": "",
        "_trackingId": 2
    },
    {
        "_id": "b-30",
        "_parentId": "a-10",
        "_type": "block",
        "_classes": "",
        "title": "",
        "displayTitle": "",
        "body": "",
        "_trackingId": 3
    },
    {
        "_id": "b-40",
        "_parentId": "a-20",
        "_type": "block",
        "_classes": "",
        "title": "",
        "displayTitle": "",
        "body": "",
        "_trackingId": 4
    },
    {
        "_id": "b-50",
        "_parentId": "a-20",
        "_type": "block",
        "_classes": "",
        "title": "",
        "displayTitle": "",
        "body": "",
        "_trackingId": 5
    },
    {
        "_id": "b-60",
        "_parentId": "a-20",
        "_type": "block",
        "_classes": "",
        "title": "",
        "displayTitle": "",
        "body": "",
        "_trackingId": 6
    },
    {
        "_id": "b-80",
        "_parentId": "a-20",
        "_type": "block",
        "_classes": "",
        "title": "",
        "displayTitle": "",
        "body": "",
        "_trackingId": 8
    },
    {
        "_id": "b-90",
        "_parentId": "a-20",
        "_type": "block",
        "_classes": "",
        "title": "",
        "displayTitle": "",
        "body": "",
        "_trackingId": 9
    },
    {
        "_id": "b-100",
        "_parentId": "a-20",
        "_type": "block",
        "_classes": "",
        "title": "",
        "displayTitle": "",
        "body": "",
        "_trackingId": 10
    },
    {
        "_id": "b-110",
        "_parentId": "a-20",
        "_type": "block",
        "_classes": "",
        "title": "",
        "displayTitle": "",
        "body": "",
        "_trackingId": 11
    },
    {
        "_id": "b-120",
        "_parentId": "a-30",
        "_type": "block",
        "_classes": "",
        "title": "",
        "displayTitle": "",
        "body": "",
        "_trackingId": 12
    },
    {
        "_id": "b-130",
        "_parentId": "a-30",
        "_type": "block",
        "_classes": "",
        "title": "",
        "displayTitle": "",
        "body": "",
        "_trackingId": 13
    },
    {
        "_id": "b-135",
        "_parentId": "a-30",
        "_type": "block",
        "_classes": "",
        "title": "",
        "displayTitle": "",
        "body": "",
        "_trackingId": 14
    },
    {
        "_id": "b-140",
        "_parentId": "a-30",
        "_type": "block",
        "_classes": "",
        "title": "",
        "displayTitle": "",
        "body": "",
        "_trackingId": 15
    },
    {
        "_id": "b-150",
        "_parentId": "a-30",
        "_type": "block",
        "_classes": "",
        "title": "",
        "displayTitle": "",
        "body": "",
        "_trackingId": 16
    },
    {
        "_id": "b-160",
        "_parentId": "a-30",
        "_type": "block",
        "_classes": "",
        "title": "",
        "displayTitle": "",
        "body": "",
        "_trackingId": 17
    },
    {
        "_id": "b-170",
        "_parentId": "a-40",
        "_type": "block",
        "_classes": "",
        "title": "",
        "displayTitle": "",
        "body": "",
        "_trackingId": 18
    },
    {
        "_id": "b-180",
        "_parentId": "a-40",
        "_type": "block",
        "_classes": "",
        "title": "",
        "displayTitle": "",
        "body": "",
        "_trackingId": 19
    },
    {
        "_id": "b-190",
        "_parentId": "a-40",
        "_type": "block",
        "_classes": "",
        "title": "",
        "displayTitle": "",
        "body": "",
        "_trackingId": 20
    },
    {
        "_id": "b-200",
        "_parentId": "a-40",
        "_type": "block",
        "_classes": "",
        "title": "",
        "displayTitle": "",
        "body": "",
        "_trackingId": 21
    },
    {
        "_id": "b-210",
        "_parentId": "a-50",
        "_type": "block",
        "_classes": "",
        "title": "",
        "displayTitle": "",
        "body": "",
        "_trackingId": 22
    },
    {
        "_id": "b-220",
        "_parentId": "a-50",
        "_type": "block",
        "_classes": "",
        "title": "",
        "displayTitle": "",
        "body": "",
        "_trackingId": 23
    },
    {
        "_id": "b-230",
        "_parentId": "a-50",
        "_type": "block",
        "_classes": "",
        "title": "",
        "displayTitle": "",
        "body": "",
        "_trackingId": 24
    },
    {
        "_id": "b-240",
        "_parentId": "a-50",
        "_type": "block",
        "_classes": "",
        "title": "",
        "displayTitle": "",
        "body": "",
        "_trackingId": 25
    },
    {
        "_id": "b-250",
        "_parentId": "a-50",
        "_type": "block",
        "_classes": "",
        "title": "",
        "displayTitle": "",
        "body": "",
        "_trackingId": 26
    },
    {
        "_id": "b-260",
        "_parentId": "a-50",
        "_type": "block",
        "_classes": "",
        "title": "",
        "displayTitle": "",
        "body": "",
        "_trackingId": 27
    },
    {
        "_id": "b-270",
        "_parentId": "a-50",
        "_type": "block",
        "_classes": "",
        "title": "",
        "displayTitle": "",
        "body": "",
        "_trackingId": 28
    },
    {
        "_id": "b-280",
        "_parentId": "a-50",
        "_type": "block",
        "_classes": "",
        "title": "",
        "displayTitle": "",
        "body": "",
        "_trackingId": 29
    },
    {
        "_id": "b-290",
        "_parentId": "a-50",
        "_type": "block",
        "_classes": "",
        "title": "",
        "displayTitle": "",
        "body": "",
        "_trackingId": 30
    },
    {
        "_id": "b-300",
        "_parentId": "a-50",
        "_type": "block",
        "_classes": "",
        "title": "",
        "displayTitle": "",
        "body": "",
        "_trackingId": 31
    },
    {
        "_id": "b-310",
        "_parentId": "a-50",
        "_type": "block",
        "_classes": "",
        "title": "",
        "displayTitle": "",
        "body": "",
        "_trackingId": 32
    },
    {
        "_id": "b-320",
        "_parentId": "a-50",
        "_type": "block",
        "_classes": "",
        "title": "",
        "displayTitle": "",
        "body": "",
        "_trackingId": 33
    },
    {
        "_id": "b-330",
        "_parentId": "a-50",
        "_type": "block",
        "_classes": "",
        "title": "",
        "displayTitle": "",
        "body": "",
        "_trackingId": 34
    }
]